{
  "name": "anvelA5E",
  "title": "Anvel's A5E",
  "description": "Anvel's tools for A5E",
  "version": "0.1.4",
  "library": "false",
  "manifestPlusVersion": "0.1.0",
  "minimumCoreVersion": "0.8.9",
  "compatibleCoreVersion": "0.8.9",
  "system": "dnd5e",
  "authors": [
    {
      "name": "Anvel Tianhold"
    }
  ],
  "dependencies": [

  ],
  "conflicts": [
    
  ],
  "esmodules": [
    "/scripts/module.js",
	"/scripts/auxtool.js",
	"/scripts/function_overrides.js",
	"/scripts/settings.js",
	"/scripts/libWrapper.js"
  ],
  "scripts": [
  
  ],
  "styles": [
    "/styles/module.css"
  ],
  "languages": [
    {
      "lang": "en",
      "name": "English",
      "path": "languages/en.json"
    }
  ],
  "url": "https://gitlab.com/JuanDaSilva/anvel-a5e-tools",
  "manifest": "https://gitlab.com/JuanDaSilva/anvel-a5e-tools/-/raw/main/module.json",
  "download": "https://gitlab.com/JuanDaSilva/anvel-a5e-tools/-/archive/main/anvel-a5e-tools-main.zip",
  "media": [
    {
      "type": "icon",
      "url": "https://avatars2.githubusercontent.com/u/71292812?s=400&u=ccdb4eeb7abf551ca8f314e5a9bfd0479a4d3d41&v=4"
    }
  ]
}
